^C:\USERS\TIMEV\SOURCE\REPOS\PHYS202LAB2\PHYS202 LAB 2 CONSOLE SIMULATION.CPP
C:\USERS\TIMEV\SOURCE\REPOS\PHYS202LAB2\X64\DEBUG\VC142.PDB
C:\USERS\TIMEV\SOURCE\REPOS\PHYS202LAB2\X64\DEBUG\VC142.IDB
C:\USERS\TIMEV\SOURCE\REPOS\PHYS202LAB2\X64\DEBUG\PHYS202 LAB 2 CONSOLE SIMULATION.OBJ
